Survey Comps Deep Dive
…
Strong distinctions between all three data pull methods; afscdata seems to have far more small individuals.

Now I will calculate the frequencies of each length bin and compare outcomes, across data sources as well as compared to the inputs in the 2020 model. Recall that these are still the raw data; they haven’t been binned. This gives me reason to a) abandon the afscdata pull from the outset, and b) dig into what’s happening to cause the subsequent workup on these data to diverge so much from before.

# A tibble: 82 × 55
    YEAR SEX       `350`     `400`  `320`   `150`   `140`  `240`  `190`   `130`
   <int> <chr>     <dbl>     <dbl>  <dbl>   <dbl>   <dbl>  <dbl>  <dbl>   <dbl>
 1  1982 females 0.0249  0.00835   0.0556 0.0209  0.0236  0.0486 0.0296 0.0217 
 2  1982 males   0.00492 0.000222  0.0352 0.0253  0.0284  0.0481 0.0304 0.0239 
 3  1983 females 0.0427  0.00535   0.0577 0.0174  0.0182  0.0333 0.0386 0.0270 
 4  1983 males   0.0121  0.0000508 0.0486 0.0155  0.0238  0.0395 0.0445 0.0345 
 5  1984 males   0.0124  0.000128  0.0460 0.0368  0.0298  0.0425 0.0405 0.0171 
 6  1984 females 0.0335  0.00580   0.0398 0.0439  0.0235  0.0443 0.0319 0.0226 
 7  1985 males   0.0246  0.000560  0.0499 0.0144  0.0152  0.0407 0.0458 0.00776
 8  1985 females 0.0354  0.0113    0.0446 0.0169  0.0145  0.0408 0.0459 0.00876
 9  1986 females 0.0450  0.0195    0.0482 0.00892 0.00806 0.0519 0.0175 0.00687
10  1986 males   0.0266  0.000757  0.0681 0.00897 0.0130  0.0598 0.0316 0.0190 
# ℹ 72 more rows
# ℹ 45 more variables: `280` <dbl>, `160` <dbl>, `230` <dbl>, `120` <dbl>,
#   `270` <dbl>, `180` <dbl>, `290` <dbl>, `260` <dbl>, `300` <dbl>,
#   `100` <dbl>, `330` <dbl>, `380` <dbl>, `210` <dbl>, `220` <dbl>,
#   `340` <dbl>, `110` <dbl>, `200` <dbl>, `170` <dbl>, `250` <dbl>,
#   `310` <dbl>, `420` <dbl>, `360` <dbl>, `370` <dbl>, `440` <dbl>,
#   `390` <dbl>, `80` <dbl>, `450` <dbl>, `430` <dbl>, `410` <dbl>, …
…
